<?xml version="1.0" encoding="UTF-8"?>
<svg width="9px" height="8px" viewBox="0 0 9 8" version="1.1" xmlns="http://www.w3.org/2000/svg" xmlns:xlink="http://www.w3.org/1999/xlink">
    <!-- Generator: Sketch 49 (51002) - http://www.bohemiancoding.com/sketch -->
    <title>carrot_2</title>
    <desc>Created with Sketch.</desc>
    <defs></defs>
    <g id="carrot_2" stroke="currentColor" stroke-width="1" fill="currentColor" fill-rule="evenodd">
        <path d="M2.33666667,5.91243551 C2.30466667,5.93115665 2.27133333,5.93516832 2.238,5.94854056 C2.202,5.96325002 2.16733333,5.97929671 2.13,5.98732005 C2.086,5.99668062 2.04466667,5.99668062 1.99933333,5.99668062 C1.95533333,5.99668062 1.91266667,5.99668062 1.87,5.98732005 C1.83133333,5.97929671 1.798,5.96325002 1.762,5.94854056 C1.72866667,5.93516832 1.694,5.93115665 1.66333333,5.91243551 L-1.66333333,3.34095398 C-1.982,3.14170762 -2.09133333,2.70176096 -1.90733333,2.35675719 C-1.72333333,2.01309065 -1.31533333,1.89407773 -0.996666667,2.09332409 L1.99933333,4.40939586 L4.99666667,2.09332409 C5.31533333,1.89407773 5.72333333,2.01309065 5.90733333,2.35675719 C6.09133333,2.70176096 5.982,3.14170762 5.66333333,3.34095398 L2.33666667,5.91243551 Z" id="Fill-1-Copy-19" fill="#333333" transform="translate(2.000000, 3.996681) scale(1, -1) rotate(-90.000000) translate(-2.000000, -3.996681) "></path>
        <path d="M6.83749651,5.91243551 C6.80549651,5.93115665 6.77216318,5.93516832 6.73882985,5.94854056 C6.70282985,5.96325002 6.66816318,5.97929671 6.63082985,5.98732005 C6.58682985,5.99668062 6.54549651,5.99668062 6.50016318,5.99668062 C6.45616318,5.99668062 6.41349651,5.99668062 6.37082985,5.98732005 C6.33216318,5.97929671 6.29882985,5.96325002 6.26282985,5.94854056 C6.22949651,5.93516832 6.19482985,5.93115665 6.16416318,5.91243551 L2.83749651,3.34095398 C2.51882985,3.14170762 2.40949651,2.70176096 2.59349651,2.35675719 C2.77749651,2.01309065 3.18549651,1.89407773 3.50416318,2.09332409 L6.50016318,4.40939586 L9.49749651,2.09332409 C9.81616318,1.89407773 10.2241632,2.01309065 10.4081632,2.35675719 C10.5921632,2.70176096 10.4828298,3.14170762 10.1641632,3.34095398 L6.83749651,5.91243551 Z" id="Fill-1-Copy-19" fill="#333333" transform="translate(6.500830, 3.996681) scale(1, -1) rotate(-90.000000) translate(-6.500830, -3.996681) "></path>
    </g>
</svg>