<?xml version="1.0" encoding="UTF-8"?>
<svg width="13px" height="12px" viewBox="0 0 13 12" version="1.1" xmlns="http://www.w3.org/2000/svg" xmlns:xlink="http://www.w3.org/1999/xlink">
    <!-- Generator: Sketch 49 (51002) - http://www.bohemiancoding.com/sketch -->
    <title>plus</title>
    <desc>Created with Sketch.</desc>
    <defs></defs>
    <g id="Symbols" stroke="currentColor" stroke-width="1" fill="currentColor" fill-rule="evenodd">
        <g id="plus" transform="translate(-4.000000, -4.000000)" fill="#333333">
            <g transform="translate(3.500000, 4.000000)">
                <path d="M6.75,0 L6.75,0 C7.16421356,-7.6089797e-17 7.5,0.335786438 7.5,0.75 L7.5,2.18181818 L7.5,11.25 C7.5,11.6642136 7.16421356,12 6.75,12 L6.75,12 C6.33578644,12 6,11.6642136 6,11.25 L6,0.75 C6,0.335786438 6.33578644,7.6089797e-17 6.75,0 Z" id="Rectangle-7"></path>
                <rect id="Rectangle-7-Copy" transform="translate(6.750000, 6.000000) rotate(90.000000) translate(-6.750000, -6.000000) " x="6" y="0" width="1.5" height="12" rx="0.75"></rect>
            </g>
        </g>
    </g>
</svg>