<?xml version="1.0" encoding="utf-8"?>
<!-- Generator: Adobe Illustrator 22.0.1, SVG Export Plug-In . SVG Version: 6.00 Build 0)  -->
<svg version="1.1" id="Layer_1" xmlns="http://www.w3.org/2000/svg" xmlns:xlink="http://www.w3.org/1999/xlink" x="0px" y="0px"
	 width="140px" height="140px" viewBox="0 0 140 140" style="enable-background:new 0 0 140 140;" xml:space="preserve">
<path fill="currentColor" stroke="currentColor" class="st0" d="M70,0C31.34,0,0,31.34,0,70s31.34,70,70,70s70-31.34,70-70S108.66,0,70,0z M70,130c-33.137,0-60-26.863-60-60
	s26.863-60,60-60s60,26.863,60,60S103.137,130,70,130z"/>
<circle cx="70" cy="70" r="60"/>
<polygon fill="currentColor" class="st0" points="102.183,69.703 50.222,39.703 50.222,99.703 "/>
</svg>
